…
<br>
#### c) Get in their mind

Now, use the NRC Word-Emotion Association Lexicon in the tidytext package to identify a larger set of emotions (anger, anticipation, disgust, fear, joy, sadness, surprise, trust). Again, visualize the relationship between the use of words from these categories and success. What is your finding?

<br>
Ans: Ploting success againts the sentiments of the project description. Surprisingly disgust sentiment has high success rate. Anger sentiment seems to have lowest success.


```r
get_sentiments("nrc")
```

```
## # A tibble: 13,901 x 2
##    word        sentiment
##    <chr>       <chr>    
##  1 abacus      trust    
##  2 abandon     fear     
##  3 abandon     negative 
##  4 abandon     sadness  
##  5 abandoned   anger    
##  6 abandoned   fear     
##  7 abandoned   negative 
##  8 abandoned   sadness  
##  9 abandonment anger    
## 10 abandonment fear     
## # ... with 13,891 more rows
```
…
